17 Data Cleaning – Data Analysis Tools
…
Solution:

Convert the identified columns with wrong data types to the approprate data type.

Salary:

R

1mutate(employee_df, Salary = as.double(Salary))

1

Convert the Salary variable from a character data to a double data type using the as.double() function.

# A tibble: 1,050 × 10
   `Emp ID` First.Name LAST_NAME Gender   AGE Department     Salary HireDate    
      <dbl> <chr>      <chr>     <chr>  <dbl> <chr>           <dbl> <chr>       
 1    17487 David      Garcia    Female    55 Human Resource  48190 2019-11-09  
 2    27710 Jane       Johnson   Male      57 Finance         25895 2019-07-16  
 3    44887 Sarah      Rodriguez Female    26 Finance         64947 2012-01-04  
 4    84983 Mary       Miller    F         42 Marketg         71114 2020-01-26  
 5    99418 Robert     Martinez  Male      31 Human Resource  52962 2014-11-21  
 6    63517 John       Brown     Female    50 HR              52213 2018-01-06 …
 7    76074 Emily      Brown     Male      23 HR              52504 2010-09-16  
 8    58813 Lisa       Miller    Female    42 Human Resource  76424 2019-11-05  
 9    57504 Michael    Martinez  Female    46 Sales           45859 2012-01-13  
10    12760 Mary       Davis     Male      34 Sales           44642 2015-12-02  
# ℹ 1,040 more rows
# ℹ 2 more variables: perf_score <dbl>, emp_period <chr>
…
invalid_date_records                                          

1

add a new column is_valid_date to the data to indicate which record have a valid and invalid date using the str_detect() function from the {stringr} package and the regex.

2

Select only the HireDate and the new is_valid_date date column.

3

Retrieve records with invalid dates.

# A tibble: 117 × 2
   HireDate             is_valid_date
   <chr>                <lgl>        
 1 2018-01-06 After RE. FALSE        
 2 2015-05-10 After RE. FALSE        
 3 2011-12-01 After RE. FALSE        
 4 2020-12-08 After RE. FALSE        
 5 2019-05-14 After RE. FALSE        
 6 2015-08-31 After RE. FALSE        
 7 2018-12-26 After RE. FALSE        
 8 2018-02-07 After RE. FALSE        
 9 2023-01-10 After RE. FALSE        
10 2013-07-22 After RE. FALSE        
# ℹ 107 more rows
…
Cleaning extreme values

Once you have identified extreme values, you need to decide how to clean them. There are several approaches:

Replace with NA: If you want to keep track of these records but exclude them from analysis.

R

employee_df |>
  mutate(AGE = if_else(AGE > 65, NA, AGE))

# A tibble: 1,050 × 10
   `Emp ID` First.Name LAST_NAME Gender   AGE Department     Salary HireDate  
      <dbl> <chr>      <chr>     <chr>  <dbl> <chr>           <dbl> <date>    
 1    17487 David      Garcia    Female    55 Human Resource  48190 2019-11-09
 2    27710 Jane       Johnson   Male      57 Finance         25895 2019-07-16
 3    44887 Sarah      Rodriguez Female    26 Finance         64947 2012-01-04
 4    84983 Mary       Miller    F         42 Marketg         71114 2020-01-26
 5    99418 Robert     Martinez  Male      31 Human Resource  52962 2014-11-21
 6    63517 John       Brown     Female    50 HR              52213 2018-01-06
 7    76074 Emily      Brown     Male      23 HR              52504 2010-09-16
 8    58813 Lisa       Miller    Female    42 Human Resource  76424 2019-11-05
 9    57504 Michael    Martinez  Female    46 Sales           45859 2012-01-13
10    12760 Mary       Davis     Male      34 Sales           44642 2015-12-02
# ℹ 1,040 more rows
# ℹ 2 more variables: perf_score <dbl>, emp_period <chr>
…
R

employee_df |>
1  select(Gender, Department) |>
2  distinct()

1

Select the Gender and Department variables.

2

Retrieve only unique values from each variable.

# A tibble: 46 × 2
   Gender Department    
   <chr>  <chr>         
 1 Female Human Resource
 2 Male   Finance       
 3 Female Finance       
 4 F      Marketg       
 5 Male   Human Resource
 6 Female HR            
 7 Male   HR            
 8 Female Sales         
 9 Male   Sales         
10 Female Marketg       
# ℹ 36 more rows
…
17.2.2.4 Duplicated records

R

distinct(employee_df)

# A tibble: 1,000 × 10
   `Emp ID` First.Name LAST_NAME Gender   AGE Department Salary HireDate  
      <dbl> <chr>      <chr>     <chr>  <dbl> <chr>       <dbl> <date>    
 1    17487 David      Garcia    Female    55 HR          48190 2019-11-09
 2    27710 Jane       Johnson   Male      57 Finance     25895 2019-07-16
 3    44887 Sarah      Rodriguez Female    26 Finance     64947 2012-01-04
 4    84983 Mary       Miller    Female    42 Marketing   71114 2020-01-26
 5    99418 Robert     Martinez  Male      31 HR          52962 2014-11-21
 6    63517 John       Brown     Female    50 HR          52213 2018-01-06
 7    76074 Emily      Brown     Male      23 HR          52504 2010-09-16
 8    58813 Lisa       Miller    Female    42 HR          76424 2019-11-05
 9    57504 Michael    Martinez  Female    46 Sales       45859 2012-01-13
10    12760 Mary       Davis     Male      34 Sales       44642 2015-12-02
# ℹ 990 more rows
# ℹ 2 more variables: perf_score <dbl>, emp_period <chr>
…
sapply(employee_df, \(x) sum(is.na(x)))

    Emp ID First.Name  LAST_NAME     Gender        AGE Department     Salary 
         0          0          0          0          0          0          0 
  HireDate perf_score emp_period 
         0          0          0 

17.2.2.6 Data invalidity

R

distinct(employee_df, emp_period)

# A tibble: 91 × 1
   emp_period 
   <chr>      
 1 2012 - 2015
 2 2016 - 2018
 3 2016 - 2014
 4 2014 - 2019
 5 2015 - 2021
 6 2017 - 2019
 7 2014 - 2017
 8 2010 - 2021
 9 2013 - 2019
10 2012 - 2017
# ℹ 81 more rows
…
