14 Tidyverse – Data Analysis Tools
…
@ select() || tidyselect…

R

select(data, colum1, ....)

Example:

1select(starwars, name, height, mass, hair_color)

1

Select the first three columns by name.

# A tibble: 87 × 4
   name               height  mass hair_color   
   <chr>               <int> <dbl> <chr>        
 1 Luke Skywalker        172    77 blond        
 2 C-3PO                 167    75 <NA>         
 3 R2-D2                  96    32 <NA>         
 4 Darth Vader           202   136 none         
 5 Leia Organa           150    49 brown        
 6 Owen Lars             178   120 brown, grey  
 7 Beru Whitesun Lars    165    75 brown        
 8 R5-D4                  97    32 <NA>         
 9 Biggs Darklighter     183    84 black        
10 Obi-Wan Kenobi        182    77 auburn, white
# ℹ 77 more rows

: for selecting a range of consecutive variables.

R

1select(starwars, name:hair_color)

1

select the first three columns using the : operator.

# A tibble: 87 × 4
   name               height  mass hair_color   
   <chr>               <int> <dbl> <chr>        
 1 Luke Skywalker        172    77 blond        
 2 C-3PO                 167    75 <NA>         
 3 R2-D2                  96    32 <NA>         
 4 Darth Vader           202   136 none         
 5 Leia Organa           150    49 brown        
 6 Owen Lars             178   120 brown, grey  
 7 Beru Whitesun Lars    165    75 brown        
 8 R5-D4                  97    32 <NA>         
 9 Biggs Darklighter     183    84 black        
10 Obi-Wan Kenobi        182    77 auburn, white
# ℹ 77 more rows

! for taking the complement of a set of variables.

R

1select(starwars, !name)

1

select all columns except the name column

# A tibble: 87 × 13
   height  mass hair_color    skin_color  eye_color birth_year sex    gender   
    <int> <dbl> <chr>         <chr>       <chr>          <dbl> <chr>  <chr>    
 1    172    77 blond         fair        blue            19   male   masculine
 2    167    75 <NA>          gold        yellow         112   none   masculine
 3     96    32 <NA>          white, blue red             33   none   masculine
 4    202   136 none          white       yellow          41.9 male   masculine
 5    150    49 brown         light       brown           19   female feminine 
 6    178   120 brown, grey   light       blue            52   male   masculine
 7    165    75 brown         light       blue            47   female feminine 
 8     97    32 <NA>          white, red  red             NA   none   masculine
 9    183    84 black         light       brown           24   male   masculine
10    182    77 auburn, white fair        blue-gray       57   male   masculine
# ℹ 77 more rows
# ℹ 5 more variables: homeworld <chr>, species <chr>, films <list>,
#   vehicles <list>, starships <list>

c() for combining selections.

R

select(starwars, c(name, mass, eye_color))

# A tibble: 87 × 3
   name                mass eye_color
   <chr>              <dbl> <chr>    
 1 Luke Skywalker        77 blue     
 2 C-3PO                 75 yellow   
 3 R2-D2                 32 red      
 4 Darth Vader          136 yellow   
 5 Leia Organa           49 brown    
 6 Owen Lars            120 blue     
 7 Beru Whitesun Lars    75 blue     
 8 R5-D4                 32 red      
 9 Biggs Darklighter     84 brown    
10 Obi-Wan Kenobi        77 blue-gray
# ℹ 77 more rows

everything()

This is a selection helper primarily used for selecting all variables from a data frame or tibble

R

select(starwars, everything())

# A tibble: 87 × 14
   name     height  mass hair_color skin_color eye_color birth_year sex   gender
   <chr>     <int> <dbl> <chr>      <chr>      <chr>          <dbl> <chr> <chr> 
 1 Luke Sk…    172    77 blond      fair       blue            19   male  mascu…
 2 C-3PO       167    75 <NA>       gold       yellow         112   none  mascu…
 3 R2-D2        96    32 <NA>       white, bl… red             33   none  mascu…
 4 Darth V…    202   136 none       white      yellow          41.9 male  mascu…
 5 Leia Or…    150    49 brown      light      brown           19   fema… femin…
 6 Owen La…    178   120 brown, gr… light      blue            52   male  mascu…
 7 Beru Wh…    165    75 brown      light      blue            47   fema… femin…
 8 R5-D4        97    32 <NA>       white, red red             NA   none  mascu…
 9 Biggs D…    183    84 black      light      brown           24   male  mascu…
10 Obi-Wan…    182    77 auburn, w… fair       blue-gray       57   male  mascu…
# ℹ 77 more rows
# ℹ 5 more variables: homeworld <chr>, species <chr>, films <list>,
#   vehicles <list>, starships <list>
…
  Petal.Length Petal.Width Sepal.Length Sepal.Width
1          1.4         0.2          5.1         3.5
2          1.4         0.2          4.9         3.0
3          1.3         0.2          4.7         3.2
4          1.5         0.2          4.6         3.1
5          1.4         0.2          5.0         3.6

ends_with()

This function allows users to select variables (columns) from a data frame based on whether their names end with a specified suffix. The primary purpose of of the ends_with()

select(starwars, ends_with("color"))

# A tibble: 87 × 3
   hair_color    skin_color  eye_color
   <chr>         <chr>       <chr>    
 1 blond         fair        blue     
 2 <NA>          gold        yellow   
 3 <NA>          white, blue red      
 4 none          white       yellow   
 5 brown         light       brown    
 6 brown, grey   light       blue     
 7 brown         light       blue     
 8 <NA>          white, red  red      
 9 black         light       brown    
10 auburn, white fair        blue-gray
# ℹ 77 more rows

contains()

This function allows users to select variables from a data frame based on whether their names contain a specific substring.

R

select(starwars, contains("color"))

# A tibble: 87 × 3
   hair_color    skin_color  eye_color
   <chr>         <chr>       <chr>    
 1 blond         fair        blue     
 2 <NA>          gold        yellow   
 3 <NA>          white, blue red      
 4 none          white       yellow   
 5 brown         light       brown    
 6 brown, grey   light       blue     
 7 brown         light       blue     
 8 <NA>          white, red  red      
 9 black         light       brown    
10 auburn, white fair        blue-gray
# ℹ 77 more rows

all_of()

This function is specifically designed to facilitate the selection of variables from data frames using character vectors and it is particularly useful when you want to ensure that all specified variables are present in the data frame.

R

select(starwars, all_of(c("name", "height", "mass")))

# A tibble: 87 × 3
   name               height  mass
   <chr>               <int> <dbl>
 1 Luke Skywalker        172    77
 2 C-3PO                 167    75
 3 R2-D2                  96    32
 4 Darth Vader           202   136
 5 Leia Organa           150    49
 6 Owen Lars             178   120
 7 Beru Whitesun Lars    165    75
 8 R5-D4                  97    32
 9 Biggs Darklighter     183    84
10 Obi-Wan Kenobi        182    77
# ℹ 77 more rows
…
any_of()

This function is particularly useful when you want to select variables from a data frame based on a character vector of variable names. The key feature of any_of() is its leniency regarding missing variables.

R

1select(starwars, any_of(c("name", "height", "mass", "max")))

1

Ignores the max column name which does not exist in the table.

# A tibble: 87 × 3
   name               height  mass
   <chr>               <int> <dbl>
 1 Luke Skywalker        172    77
 2 C-3PO                 167    75
 3 R2-D2                  96    32
 4 Darth Vader           202   136
 5 Leia Organa           150    49
 6 Owen Lars             178   120
 7 Beru Whitesun Lars    165    75
 8 R5-D4                  97    32
 9 Biggs Darklighter     183    84
10 Obi-Wan Kenobi        182    77
# ℹ 77 more rows
…
If any of the specified variable names do not exist in the data frame, any_of() will simply ignore those names without throwing an error.

where()

This function allows users to select columns from a data frame based on a predicate function that returns either TRUE or FALSE. The predicate function can be any custom function defined by the user or built-in functions such as is.numeric, is.factor, etc.

R

1select(starwars, where(is.numeric))

1

Select only numeric columns

# A tibble: 87 × 3
   height  mass birth_year
    <int> <dbl>      <dbl>
 1    172    77       19  
 2    167    75      112  
 3     96    32       33  
 4    202   136       41.9
 5    150    49       19  
 6    178   120       52  
 7    165    75       47  
 8     97    32       NA  
 9    183    84       24  
10    182    77       57  
# ℹ 77 more rows

OR using a full lambda function

R

select(starwars, where(\(x) is.numeric(x)))

# A tibble: 87 × 3
   height  mass birth_year
    <int> <dbl>      <dbl>
 1    172    77       19  
 2    167    75      112  
 3     96    32       33  
 4    202   136       41.9
 5    150    49       19  
 6    178   120       52  
 7    165    75       47  
 8     97    32       NA  
 9    183    84       24  
10    182    77       57  
# ℹ 77 more rows

R

1select(mtcars, where(\(x) mean(x) > 100)) |>
2  as_tibble()

1

Select all numeric columns where the average value is greater than 100.

2

convert the data frame to a tibble.

# A tibble: 32 × 2
    disp    hp
   <dbl> <dbl>
 1  160    110
 2  160    110
 3  108     93
 4  258    110
 5  360    175
 6  225    105
 7  360    245
 8  147.    62
 9  141.    95
10  168.   123
# ℹ 22 more rows

Combining selection helpers

R

select(starwars, ends_with("color") | contains("year"))

# A tibble: 87 × 4
   hair_color    skin_color  eye_color birth_year
   <chr>         <chr>       <chr>          <dbl>
 1 blond         fair        blue            19  
 2 <NA>          gold        yellow         112  
 3 <NA>          white, blue red             33  
 4 none          white       yellow          41.9
 5 brown         light       brown           19  
 6 brown, grey   light       blue            52  
 7 brown         light       blue            47  
 8 <NA>          white, red  red             NA  
 9 black         light       brown           24  
10 auburn, white fair        blue-gray       57  
# ℹ 77 more rows
…
1

Convert the mtcars data frame to a tibble

2

rename the columns mpg, disp and hp to miles_per_gallon, displacement and horsepower respectively.

# A tibble: 32 × 11
   miles_per_gallon   cyl displacement horsepower  drat    wt  qsec    vs    am
              <dbl> <dbl>        <dbl>      <dbl> <dbl> <dbl> <dbl> <dbl> <dbl>
 1             21       6         160         110  3.9   2.62  16.5     0     1
 2             21       6         160         110  3.9   2.88  17.0     0     1
 3             22.8     4         108          93  3.85  2.32  18.6     1     1
 4             21.4     6         258         110  3.08  3.22  19.4     1     0
 5             18.7     8         360         175  3.15  3.44  17.0     0     0
 6             18.1     6         225         105  2.76  3.46  20.2     1     0
 7             14.3     8         360         245  3.21  3.57  15.8     0     0
 8             24.4     4         147.         62  3.69  3.19  20       1     0
 9             22.8     4         141.         95  3.92  3.15  22.9     1     0
10             19.2     6         168.        123  3.92  3.44  18.3     1     0
# ℹ 22 more rows
# ℹ 2 more variables: gear <dbl>, carb <dbl>
…
.fn: A function that will be applied to the selected column names.

.cols: Specifies which columns should be renamed (you can use tidyselect helpers like starts_with(), contains(), etc.).

Example:

R

1as_tibble(iris)

1

Convert the iris data frame to a tibble.

# A tibble: 150 × 5
   Sepal.Length Sepal.Width Petal.Length Petal.Width Species
          <dbl>       <dbl>        <dbl>       <dbl> <fct>  
 1          5.1         3.5          1.4         0.2 setosa 
 2          4.9         3            1.4         0.2 setosa 
 3          4.7         3.2          1.3         0.2 setosa 
 4          4.6         3.1          1.5         0.2 setosa 
 5          5           3.6          1.4         0.2 setosa 
 6          5.4         3.9          1.7         0.4 setosa 
 7          4.6         3.4          1.4         0.3 setosa 
 8          5           3.4          1.5         0.2 setosa 
 9          4.4         2.9          1.4         0.2 setosa 
10          4.9         3.1          1.5         0.1 setosa 
# ℹ 140 more rows

R

as_tibble(iris) |>
1  rename_with(\(x) gsub("\\.", "_", x))

1

replace the . in all the column name to _ using the gsub() in base r.

# A tibble: 150 × 5
   Sepal_Length Sepal_Width Petal_Length Petal_Width Species
          <dbl>       <dbl>        <dbl>       <dbl> <fct>  
 1          5.1         3.5          1.4         0.2 setosa 
 2          4.9         3            1.4         0.2 setosa 
 3          4.7         3.2          1.3         0.2 setosa 
 4          4.6         3.1          1.5         0.2 setosa 
 5          5           3.6          1.4         0.2 setosa 
 6          5.4         3.9          1.7         0.4 setosa 
 7          4.6         3.4          1.4         0.3 setosa 
 8          5           3.4          1.5         0.2 setosa 
 9          4.4         2.9          1.4         0.2 setosa 
10          4.9         3.1          1.5         0.1 setosa 
# ℹ 140 more rows

R

1rename_with(starwars, toupper)

1

Convert all the column names in the starwars data frame to upper case.

# A tibble: 87 × 14
   NAME     HEIGHT  MASS HAIR_COLOR SKIN_COLOR EYE_COLOR BIRTH_YEAR SEX   GENDER
   <chr>     <int> <dbl> <chr>      <chr>      <chr>          <dbl> <chr> <chr> 
 1 Luke Sk…    172    77 blond      fair       blue            19   male  mascu…
 2 C-3PO       167    75 <NA>       gold       yellow         112   none  mascu…
 3 R2-D2        96    32 <NA>       white, bl… red             33   none  mascu…
 4 Darth V…    202   136 none       white      yellow          41.9 male  mascu…
 5 Leia Or…    150    49 brown      light      brown           19   fema… femin…
 6 Owen La…    178   120 brown, gr… light      blue            52   male  mascu…
 7 Beru Wh…    165    75 brown      light      blue            47   fema… femin…
 8 R5-D4        97    32 <NA>       white, red red             NA   none  mascu…
 9 Biggs D…    183    84 black      light      brown           24   male  mascu…
10 Obi-Wan…    182    77 auburn, w… fair       blue-gray       57   male  mascu…
# ℹ 77 more rows
# ℹ 5 more variables: HOMEWORLD <chr>, SPECIES <chr>, FILMS <list>,
#   VEHICLES <list>, STARSHIPS <list>
14.3.3 Reorder columns

The relocate() function allows users to change the order of columns in a data frame or tibble, making it easier to organize data according to specific needs.

Moving one or more columns to front

R

1relocate(starwars, hair_color, skin_color, eye_color)

1

Make the hair_color, skin_color and eye_color as the first set of columns.

# A tibble: 87 × 14
   hair_color    skin_color eye_color name  height  mass birth_year sex   gender
   <chr>         <chr>      <chr>     <chr>  <int> <dbl>      <dbl> <chr> <chr> 
 1 blond         fair       blue      Luke…    172    77       19   male  mascu…
 2 <NA>          gold       yellow    C-3PO    167    75      112   none  mascu…
 3 <NA>          white, bl… red       R2-D2     96    32       33   none  mascu…
 4 none          white      yellow    Dart…    202   136       41.9 male  mascu…
 5 brown         light      brown     Leia…    150    49       19   fema… femin…
 6 brown, grey   light      blue      Owen…    178   120       52   male  mascu…
 7 brown         light      blue      Beru…    165    75       47   fema… femin…
 8 <NA>          white, red red       R5-D4     97    32       NA   none  mascu…
 9 black         light      brown     Bigg…    183    84       24   male  mascu…
10 auburn, white fair       blue-gray Obi-…    182    77       57   male  mascu…
# ℹ 77 more rows
# ℹ 5 more variables: homeworld <chr>, species <chr>, films <list>,
#   vehicles <list>, starships <list>

Moving one or more columns after another column

R

1relocate(starwars, hair_color, skin_color, eye_color, .after = name)

1

Move the hair_color, skin_color and eye_color after the name column

# A tibble: 87 × 14
   name     hair_color skin_color eye_color height  mass birth_year sex   gender
   <chr>    <chr>      <chr>      <chr>      <int> <dbl>      <dbl> <chr> <chr> 
 1 Luke Sk… blond      fair       blue         172    77       19   male  mascu…
 2 C-3PO    <NA>       gold       yellow       167    75      112   none  mascu…
 3 R2-D2    <NA>       white, bl… red           96    32       33   none  mascu…
 4 Darth V… none       white      yellow       202   136       41.9 male  mascu…
 5 Leia Or… brown      light      brown        150    49       19   fema… femin…
 6 Owen La… brown, gr… light      blue         178   120       52   male  mascu…
 7 Beru Wh… brown      light      blue         165    75       47   fema… femin…
 8 R5-D4    <NA>       white, red red           97    32       NA   none  mascu…
 9 Biggs D… black      light      brown        183    84       24   male  mascu…
10 Obi-Wan… auburn, w… fair       blue-gray    182    77       57   male  mascu…
# ℹ 77 more rows
# ℹ 5 more variables: homeworld <chr>, species <chr>, films <list>,
#   vehicles <list>, starships <list>

moving one or more columns before another column

R

1relocate(starwars, hair_color, skin_color, eye_color, .before = name)

1

Move the hair_color, skin_color and eye_color before the name column

# A tibble: 87 × 14
   hair_color    skin_color eye_color name  height  mass birth_year sex   gender
   <chr>         <chr>      <chr>     <chr>  <int> <dbl>      <dbl> <chr> <chr> 
 1 blond         fair       blue      Luke…    172    77       19   male  mascu…
 2 <NA>          gold       yellow    C-3PO    167    75      112   none  mascu…
 3 <NA>          white, bl… red       R2-D2     96    32       33   none  mascu…
 4 none          white      yellow    Dart…    202   136       41.9 male  mascu…
 5 brown         light      brown     Leia…    150    49       19   fema… femin…
 6 brown, grey   light      blue      Owen…    178   120       52   male  mascu…
 7 brown         light      blue      Beru…    165    75       47   fema… femin…
 8 <NA>          white, red red       R5-D4     97    32       NA   none  mascu…
 9 black         light      brown     Bigg…    183    84       24   male  mascu…
10 auburn, white fair       blue-gray Obi-…    182    77       57   male  mascu…
# ℹ 77 more rows
# ℹ 5 more variables: homeworld <chr>, species <chr>, films <list>,
#   vehicles <list>, starships <list>
…
